build/test1.vcd
$date
	Thu Jun 24 04:52:36 2021
$end
$version
	Icarus Verilog
$end
$timescale
	1ns
$end
$scope module tb $end
$scope module uut $end
$var wire 1 ! FWRD_EN $end
$var wire 1 " HZRD_DIS $end
$var wire 1 # clk $end
$var wire 1 $ clk_SRAM $end
$var wire 1 % rst $end
$var wire 32 & val_WB [31:0] $end
$var wire 1 ' two_src_HZRD $end
$var wire 4 ( status_ID [3:0] $end
$var wire 4 ) status_EXE [3:0] $end
$var wire 4 * src2_HZRD [3:0] $end
$var wire 4 + src2_FWRD [3:0] $end
$var wire 4 , src1_HZRD [3:0] $end
$var wire 4 - src1_FWRD [3:0] $end
$var wire 24 . signed_imm_24_EXE [23:0] $end
$var wire 12 / shifter_operand_EXE [11:0] $end
$var wire 2 0 sel_src2_FWRD [1:0] $end
$var wire 2 1 sel_src1_FWRD [1:0] $end
$var wire 32 2 rn_val_EXE [31:0] $end
$var wire 32 3 rm_val_MEM [31:0] $end
$var wire 32 4 rm_val_EXE [31:0] $end
$var wire 1 5 ready $end
$var wire 32 6 pc_ID [31:0] $end
$var wire 32 7 pc_EXE [31:0] $end
$var wire 1 8 move_HZRD $end
$var wire 32 9 instruction_ID [31:0] $end
$var wire 1 : imm_EXE $end
$var wire 1 ; hazard $end
$var wire 4 < exe_cmd_EXE [3:0] $end
$var wire 4 = dest_WB [3:0] $end
$var wire 4 > dest_MEM [3:0] $end
$var wire 4 ? dest_EXE [3:0] $end
$var wire 32 @ data_WB [31:0] $end
$var wire 32 A branch_address_IF [31:0] $end
$var wire 32 B alu_res_WB [31:0] $end
$var wire 32 C alu_res_MEM [31:0] $end
$var wire 1 D WB_EN_WB $end
$var wire 1 E WB_EN_MEM $end
$var wire 1 F WB_EN_EXE $end
$var wire 1 G S_EXE $end
$var wire 1 H MEM_W_EN_MEM $end
$var wire 1 I MEM_W_EN_EXE $end
$var wire 1 J MEM_R_EN_WB $end
$var wire 1 K MEM_R_EN_MEM $end
$var wire 1 L MEM_R_EN_EXE $end
$var wire 1 M B_EXE $end
$var reg 32 N inst_count [31:0] $end
$var reg 1 O stop $end
$scope module EXE $end
$var wire 1 P MEM_EN $end
$var wire 1 # clk $end
$var wire 1 Q freeze $end
$var wire 1 % rst $end
$var wire 32 R val_WB [31:0] $end
$var wire 32 S val2 [31:0] $end
$var wire 32 T val1 [31:0] $end
$var wire 32 U true_rm_val_EXE [31:0] $end
$var wire 4 V status_bits [3:0] $end
$var wire 4 W status_ID [3:0] $end
$var wire 4 X status_EXE [3:0] $end
$var wire 24 Y signed_imm_24_EXE [23:0] $end
$var wire 12 Z shifter_operand_EXE [11:0] $end
$var wire 2 [ sel_src2_FWRD [1:0] $end
$var wire 2 \ sel_src1_FWRD [1:0] $end
$var wire 32 ] rn_val_EXE [31:0] $end
$var wire 32 ^ rm_val_MEM [31:0] $end
$var wire 32 _ rm_val_EXE [31:0] $end
$var wire 32 ` pc_EXE [31:0] $end
$var wire 1 : imm_EXE $end
$var wire 4 a exe_cmd_EXE [3:0] $end
$var wire 4 b dest_MEM [3:0] $end
$var wire 4 c dest_EXE [3:0] $end
$var wire 32 d branch_address_IF [31:0] $end
$var wire 32 e alu_res_MEM [31:0] $end
$var wire 32 f alu_res [31:0] $end
$var wire 1 E WB_EN_MEM $end
$var wire 1 F WB_EN_EXE $end
$var wire 1 G S_EXE $end
$var wire 1 H MEM_W_EN_MEM $end
$var wire 1 I MEM_W_EN_EXE $end
$var wire 1 K MEM_R_EN_MEM $end
$var wire 1 L MEM_R_EN_EXE $end
$var wire 1 g C $end
$var wire 1 M B_EXE $end
$scope module alu $end
$var wire 1 g c $end
$var wire 32 h val1 [31:0] $end
$var wire 32 i val2 [31:0] $end
$var wire 32 j result [31:0] $end
$var wire 4 k EXE_CMD [3:0] $end
$var reg 4 l status_bits [3:0] $end
$var reg 33 m tmp [32:0] $end
$upscope $end
$scope module pr_exe_mem $end
$var wire 32 n ALU_RES_EXE [31:0] $end
$var wire 32 o VAL_RM_EXE [31:0] $end
$var wire 1 # clk $end
$var wire 1 Q freeze $end
$var wire 1 % rst $end
$var wire 1 F WB_EN_EXE $end
$var wire 1 I MEM_W_EN_EXE $end
$var wire 1 L MEM_R_EN_EXE $end
$var wire 4 p DEST_EXE [3:0] $end
$var reg 32 q ALU_RES_MEM [31:0] $end
$var reg 4 r DEST_MEM [3:0] $end
$var reg 1 K MEM_R_EN_MEM $end
$var reg 1 H MEM_W_EN_MEM $end
$var reg 32 s VAL_RM_MEM [31:0] $end
$var reg 1 E WB_EN_MEM $end
$upscope $end
$scope module sr $end
$var wire 1 # clk $end
$var wire 1 % rst $end
$var wire 4 t status_bits_in [3:0] $end
$var wire 1 G s $end
$var reg 4 u status_bits_out [3:0] $end
$upscope $end
$scope module v2g $end
$var wire 1 P mem_en $end
$var wire 32 v rm_val [31:0] $end
$var wire 12 w shifter_oprand [11:0] $end
$var wire 5 x shift_imm [4:0] $end
$var wire 2 y shift [1:0] $end
$var wire 4 z rotate_imm [3:0] $end
$var wire 4 { rm [3:0] $end
$var wire 8 | immed_8 [7:0] $end
$var wire 1 : imm $end
$var wire 1 } fourth $end
$var reg 32 ~ val2 [31:0] $end
$var integer 32 !" i [31:0] $end
$upscope $end
$upscope $end
$scope module FORWARD $end
$var wire 1 ! FWRD_EN $end
$var wire 1 E WB_EN_MEM $end
$var wire 4 "" dest_MEM [3:0] $end
$var wire 4 #" src2_FWRD [3:0] $end
$var wire 4 $" src1_FWRD [3:0] $end
$var wire 4 %" dest_WB [3:0] $end
$var wire 1 D WB_EN_WB $end
$var reg 2 &" sel_src1_FWRD [1:0] $end
$var reg 2 '" sel_src2_FWRD [1:0] $end
$upscope $end
$scope module HAZARD $end
$var wire 1 " HZRD_DIS $end
$var wire 1 E WB_EN_MEM $end
$var wire 4 (" dest_MEM [3:0] $end
$var wire 1 ' two_src_HZRD $end
$var wire 4 )" src2_HZRD [3:0] $end
$var wire 4 *" src1_HZRD [3:0] $end
$var wire 1 8 move_HZRD $end
$var wire 4 +" dest_EXE [3:0] $end
$var wire 1 F WB_EN_EXE $end
$var reg 1 ; hazard $end
$upscope $end
$scope module ID $end
$var wire 1 # clk $end
$var wire 1 ," freeze $end
$var wire 1 ; hazard $end
$var wire 1 -" mux_cc $end
$var wire 1 % rst $end
$var wire 4 ." src1_HZRD [3:0] $end
$var wire 4 /" status_ID [3:0] $end
$var wire 1 ' two_src_HZRD $end
$var wire 32 0" val [31:0] $end
$var wire 4 1" status_EXE [3:0] $end
$var wire 4 2" src2_HZRD [3:0] $end
$var wire 4 3" src2_FWRD [3:0] $end
$var wire 4 4" src1_FWRD [3:0] $end
$var wire 24 5" signed_imm_24_EXE [23:0] $end
$var wire 24 6" signed_imm_24 [23:0] $end
$var wire 12 7" shifter_operand_EXE [11:0] $end
$var wire 12 8" shifter_operand [11:0] $end
$var wire 1 9" s_ID $end
$var wire 4 :" rs [3:0] $end
$var wire 32 ;" rn_val_EXE [31:0] $end
$var wire 32 <" rn_val [31:0] $end
$var wire 4 =" rn [3:0] $end
$var wire 32 >" rm_val_EXE [31:0] $end
$var wire 32 ?" rm_val [31:0] $end
$var wire 4 @" rm [3:0] $end
$var wire 4 A" rd [3:0] $end
$var wire 32 B" pc_ID [31:0] $end
$var wire 32 C" pc_EXE [31:0] $end
$var wire 4 D" opcode [3:0] $end
$var wire 1 8 move_HZRD $end
$var wire 2 E" mode [1:0] $end
$var wire 32 F" instruction_ID [31:0] $end
$var wire 1 : imm_EXE $end
$var wire 1 G" imm $end
$var wire 4 H" exe_cmd_EXE [3:0] $end
$var wire 4 I" exe_cmd [3:0] $end
$var wire 4 J" dest_WB [3:0] $end
$var wire 4 K" dest_EXE [3:0] $end
$var wire 4 L" cond [3:0] $end
$var wire 1 M" check_cc $end
$var wire 1 D WB_EN_WB $end
$var wire 1 F WB_EN_EXE $end
$var wire 1 N" WB_EN $end
$var wire 1 G S_EXE $end
$var wire 1 O" S $end
$var wire 1 I MEM_W_EN_EXE $end
$var wire 1 P" MEM_W_EN $end
$var wire 1 L MEM_R_EN_EXE $end
$var wire 1 Q" MEM_R_EN $end
$var wire 1 M B_EXE $end
$var wire 1 R" B $end
$scope module cc $end
$var wire 4 S" cond [3:0] $end
$var wire 4 T" status_ID [3:0] $end
$var wire 1 U" Z $end
$var wire 1 V" V $end
$var wire 1 W" N $end
$var wire 1 X" C $end
$var reg 1 M" check_cc $end
$upscope $end
$scope module ctrl $end
$var wire 1 9" S_ID $end
$var wire 2 Y" mode [1:0] $end
$var wire 1 -" mux_cc $end
$var wire 4 Z" opcode [3:0] $end
$var reg 1 R" B $end
$var reg 1 Q" MEM_R_EN $end
$var reg 1 P" MEM_W_EN $end
$var reg 1 O" S $end
$var reg 1 N" WB_EN $end
$var reg 4 [" exe_cmd [3:0] $end
$var reg 1 8 move_HZRD $end
$upscope $end
$scope module pr_id_exe $end
$var wire 1 R" B_ID $end
$var wire 1 Q" MEM_R_EN_ID $end
$var wire 1 P" MEM_W_EN_ID $end
$var wire 1 O" S_ID $end
$var wire 1 N" WB_EN_ID $end
$var wire 1 # clk $end
$var wire 4 \" dest_ID [3:0] $end
$var wire 4 ]" exe_cmd_ID [3:0] $end
$var wire 1 M flush $end
$var wire 1 ," freeze $end
$var wire 1 G" imm_ID $end
$var wire 1 % rst $end
$var wire 12 ^" shifter_operand_ID [11:0] $end
$var wire 24 _" signed_imm_24_ID [23:0] $end
$var wire 4 `" src1_ID [3:0] $end
$var wire 4 a" src2_ID [3:0] $end
$var wire 4 b" status_ID [3:0] $end
$var wire 32 c" rn_val_ID [31:0] $end
$var wire 32 d" rm_val_ID [31:0] $end
$var wire 32 e" pc_ID [31:0] $end
$var reg 1 M B_EXE $end
$var reg 1 L MEM_R_EN_EXE $end
$var reg 1 I MEM_W_EN_EXE $end
$var reg 1 G S_EXE $end
$var reg 1 F WB_EN_EXE $end
$var reg 4 f" dest_EXE [3:0] $end
$var reg 4 g" exe_cmd_EXE [3:0] $end
$var reg 1 : imm_EXE $end
$var reg 32 h" pc_EXE [31:0] $end
$var reg 32 i" rm_val_EXE [31:0] $end
$var reg 32 j" rn_val_EXE [31:0] $end
$var reg 12 k" shifter_operand_EXE [11:0] $end
$var reg 24 l" signed_imm_24_EXE [23:0] $end
$var reg 4 m" src1_FWRD [3:0] $end
$var reg 4 n" src2_FWRD [3:0] $end
$var reg 4 o" status_EXE [3:0] $end
$upscope $end
$scope module rf $end
$var wire 1 # clk $end
$var wire 32 p" rm_val [31:0] $end
$var wire 32 q" rn_val [31:0] $end
$var wire 1 % rst $end
$var wire 4 r" src1_HZRD [3:0] $end
$var wire 4 s" src2_HZRD [3:0] $end
$var wire 32 t" val_ID [31:0] $end
$var wire 4 u" dest_ID [3:0] $end
$var wire 1 D WB_EN_ID $end
$var integer 32 v" fd [31:0] $end
$var integer 32 w" i [31:0] $end
$upscope $end
$upscope $end
$scope module IF $end
$var wire 1 M B_EXE $end
$var wire 32 x" branch_address_IF [31:0] $end
$var wire 1 # clk $end
$var wire 1 y" hazard $end
$var wire 1 % rst $end
$var wire 32 z" pc_next [31:0] $end
$var wire 32 {" pc_ID [31:0] $end
$var wire 32 |" pc4 [31:0] $end
$var wire 32 }" pc [31:0] $end
$var wire 32 ~" instruction_ID [31:0] $end
$var wire 32 !# instruction [31:0] $end
$scope module PC $end
$var wire 1 # clk $end
$var wire 1 y" freeze $end
$var wire 32 "# pcIn [31:0] $end
$var wire 1 % rst $end
$var reg 32 ## pcOut [31:0] $end
$upscope $end
$scope module im $end
$var wire 32 $# address [31:0] $end
$var wire 32 %# instruction [31:0] $end
$upscope $end
$scope module pr_if_id $end
$var wire 1 # clk $end
$var wire 1 M flush $end
$var wire 1 y" freeze $end
$var wire 32 &# instruction_IF [31:0] $end
$var wire 32 '# pc_IF [31:0] $end
$var wire 1 % rst $end
$var reg 32 (# instruction_ID [31:0] $end
$var reg 32 )# pc_ID [31:0] $end
$upscope $end
$upscope $end
$scope module MEM $end
$var wire 1 K MEM_R_EN_MEM $end
$var wire 1 H MEM_W_EN_MEM $end
$var wire 1 E WB_EN_MEM $end
$var wire 32 *# alu_res_MEM [31:0] $end
$var wire 1 # clk $end
$var wire 1 $ clk_SRAM $end
$var wire 32 +# data_SRAM [31:0] $end
$var wire 4 ,# dest_MEM [3:0] $end
$var wire 32 -# rm_val_MEM [31:0] $end
$var wire 1 % rst $end
$var wire 1 5 ready $end
$var wire 32 .# read_data [31:0] $end
$var wire 4 /# dest_WB [3:0] $end
$var wire 32 0# data_WB [31:0] $end
$var wire 32 1# alu_res_WB [31:0] $end
$var wire 16 2# address_SRAM [15:0] $end
$var wire 1 3# WE_N_SRAM $end
$var wire 1 D WB_EN_WB $end
$var wire 1 J MEM_R_EN_WB $end
$scope module pr_mem_wb $end
$var wire 1 K MEM_R_EN_MEM $end
$var wire 1 E WB_EN_MEM $end
$var wire 32 4# alu_res_MEM [31:0] $end
$var wire 1 # clk $end
$var wire 4 5# dest_MEM [3:0] $end
$var wire 1 6# freeze $end
$var wire 1 % rst $end
$var wire 32 7# data [31:0] $end
$var reg 1 J MEM_R_EN_WB $end
$var reg 1 D WB_EN_WB $end
$var reg 32 8# alu_res_WB [31:0] $end
$var reg 32 9# data_WB [31:0] $end
$var reg 4 :# dest_WB [3:0] $end
$upscope $end
$scope module sram_ctrl $end
$var wire 1 K MEM_R_EN $end
$var wire 1 H MEM_W_EN $end
$var wire 1 3# WE_N_SRAM $end
$var wire 32 ;# address [31:0] $end
$var wire 1 # clk $end
$var wire 32 <# data_SRAM [31:0] $end
$var wire 32 =# read_data [31:0] $end
$var wire 1 % rst $end
$var wire 32 ># write_data [31:0] $end
$var wire 32 ?# temp_address [31:0] $end
$var wire 1 5 ready $end
$var wire 16 @# address_SRAM [15:0] $end
$var integer 32 A# cycle [31:0] $end
$upscope $end
$scope module srm $end
$var wire 1 3# WE_N_SRAM $end
$var wire 16 B# address_SRAM [15:0] $end
$var wire 1 $ clk $end
$var wire 32 C# data_SRAM [31:0] $end
$var wire 1 % rst $end
$var integer 32 D# fd [31:0] $end
$var integer 32 E# i [31:0] $end
$upscope $end
$upscope $end
$scope module WB $end
$var wire 1 J MEM_R_EN_WB $end
$var wire 1 D WB_EN_WB $end
$var wire 32 F# alu_res_WB [31:0] $end
$var wire 32 G# data_WB [31:0] $end
$var wire 4 H# dest_WB [3:0] $end
$var wire 32 I# val [31:0] $end
$upscope $end
$upscope $end
$upscope $end
$enddefinitions $end
#0
$dumpvars
bx I#
bx H#
bx G#
bx F#
b1000000000 E#
b10000000000000000000000000000011 D#
bx C#
bx B#
b0 A#
bx @#
bx ?#
bx >#
bx =#
bx <#
bx ;#
bx :#
bx 9#
bx 8#
bx 7#
x6#
bx 5#
bx 4#
x3#
bx 2#
bx 1#
bx 0#
bx /#
bx .#
bx -#
bx ,#
bx +#
bx *#
bx )#
b0 (#
b100 '#
b11100011101000000000000000010100 &#
b11100011101000000000000000010100 %#
b0 $#
b0 ##
bx "#
b11100011101000000000000000010100 !#
b0 ~"
b0 }"
b100 |"
bx {"
bx z"
xy"
bx x"
b1111 w"
b10000000000000000000000000000011 v"
bx u"
bx t"
b0 s"
b0 r"
b0 q"
b0 p"
bx o"
bx n"
bx m"
bx l"
bx k"
bx j"
bx i"
bx h"
bx g"
bx f"
bx e"
b0 d"
b0 c"
bx b"
b0 a"
b0 `"
b0 _"
b0 ^"
b0 ]"
b0 \"
b0 ["
b0 Z"
b0 Y"
xX"
xW"
xV"
xU"
bx T"
b0 S"
0R"
0Q"
0P"
0O"
0N"
0M"
b0 L"
bx K"
bx J"
b0 I"
bx H"
0G"
b0 F"
b0 E"
b0 D"
bx C"
bx B"
b0 A"
b0 @"
b0 ?"
bx >"
b0 ="
b0 <"
bx ;"
b0 :"
09"
b0 8"
bx 7"
b0 6"
bx 5"
bx 4"
bx 3"
b0 2"
bx 1"
bx 0"
bx /"
b0 ."
1-"
x,"
bx +"
b0 *"
b0 )"
bx ("
b0 '"
b0 &"
bx %"
bx $"
bx #"
bx ""
bx !"
bx ~
x}
bx |
bx {
bx z
bx y
bx x
bx w
bx v
bx u
bx t
bx s
bx r
bx q
bx p
bx o
bx n
bx m
bx l
bx k
bx j
bx i
bx h
xg
bx f
bx e
bx d
bx c
bx b
bx a
bx `
bx _
bx ^
bx ]
b0 \
b0 [
bx Z
bx Y
bx X
bx W
bx V
bx U
bx T
bx S
bx R
xQ
xP
0O
b0 N
xM
xL
xK
xJ
xI
xH
xG
xF
xE
xD
bx C
bx B
bx A
bx @
bx ?
bx >
bx =
bx <
0;
x:
b0 9
08
bx 7
bx 6
x5
bx 4
bx 3
bx 2
b0 1
b0 0
bx /
bx .
bx -
b0 ,
bx +
b0 *
bx )
bx (
1'
bx &
0%
0$
0#
0"
0!
$end
#10
0y"
06#
0Q
0,"
15
b0 f
b0 j
b0 n
0W"
0U"
0X"
0V"
0g
b0 A
b0 d
b0 x"
b0 {
0}
b0 y
b0 x
b0 |
b0 z
b0 !"
b0 S
b0 i
b0 ~
b0 U
b0 o
b0 v
b0 T
b0 h
b100 V
b100 l
b100 t
b0 m
b100 z"
b100 "#
0P
b1111111100000000 2#
b1111111100000000 @#
b1111111100000000 B#
13#
b0 &
b0 R
b0 0"
b0 t"
b0 I#
b0 (
b0 W
b0 u
b0 /"
b0 T"
b0 b"
b0 6
b0 B"
b0 e"
b0 {"
b0 )#
b0 +
b0 #"
b0 3"
b0 n"
b0 -
b0 $"
b0 4"
b0 m"
b0 )
b0 X
b0 1"
b0 o"
b0 ?
b0 c
b0 p
b0 +"
b0 K"
b0 f"
b0 .
b0 Y
b0 5"
b0 l"
b0 /
b0 Z
b0 w
b0 7"
b0 k"
0:
b0 4
b0 _
b0 >"
b0 i"
b0 2
b0 ]
b0 ;"
b0 j"
b0 7
b0 `
b0 C"
b0 h"
b0 <
b0 a
b0 k
b0 H"
b0 g"
0M
0G
0I
0L
0F
b0 >
b0 b
b0 r
b0 ""
b0 ("
b0 ,#
b0 5#
b0 3
b0 ^
b0 s
b0 -#
b0 >#
b111111111111111111111100000000 ?#
b0 C
b0 e
b0 q
b0 *#
b0 4#
b0 ;#
0H
0K
0E
0D
0J
b0 B
b0 1#
b0 8#
b0 F#
b0 @
b0 0#
b0 9#
b0 G#
b0 =
b0 %"
b0 J"
b0 u"
b0 /#
b0 :#
b0 H#
b1111 w"
b1000000000 E#
1%
1$
1#
#20
0%
0#
#30
18
1N"
b1 I"
b1 ["
b1 ]"
0-"
0'
b100 ?"
b100 d"
b100 p"
b100 *
b100 )"
b100 2"
b100 a"
b100 s"
1M"
b101000000000000000010100 6"
b101000000000000000010100 _"
b10100 8"
b10100 ^"
b100 @"
b1101 D"
b1101 Z"
1G"
b1110 L"
b1110 S"
b1000 z"
b1000 "#
bx @
bx 0#
bx 9#
bx G#
b100 6
b100 B"
b100 e"
b100 {"
b100 )#
b11100011101000000000000000010100 9
b11100011101000000000000000010100 F"
b11100011101000000000000000010100 ~"
b11100011101000000000000000010100 (#
b11100011101000000001101000000001 !#
b11100011101000000001101000000001 %#
b11100011101000000001101000000001 &#
b1000 |"
b1000 '#
b100 }"
b100 ##
b100 $#
0$
1#
#40
0#
#50
b10100 f
b10100 j
b10100 n
b0 V
b0 l
b0 t
b10100 m
b1 ?"
b1 d"
b1 p"
b1 *
b1 )"
b1 2"
b1 a"
b1 s"
b10100 S
b10100 i
b10100 ~
b1100 z"
b1100 "#
b101000000001101000000001 6"
b101000000001101000000001 _"
b101000000001 8"
b101000000001 ^"
b1010 :"
b1 @"
b1 A"
b1 \"
b100 {
1}
b10100 |
b100 U
b100 o
b100 v
b11100011101000000010000100000011 !#
b11100011101000000010000100000011 %#
b11100011101000000010000100000011 &#
b1100 |"
b1100 '#
b1000 }"
b1000 ##
b1000 $#
b1000 6
b1000 B"
b1000 e"
b1000 {"
b1000 )#
b11100011101000000001101000000001 9
b11100011101000000001101000000001 F"
b11100011101000000001101000000001 ~"
b11100011101000000001101000000001 (#
b100 +
b100 #"
b100 3"
b100 n"
b101000000000000000010100 .
b101000000000000000010100 Y
b101000000000000000010100 5"
b101000000000000000010100 l"
b10100 /
b10100 Z
b10100 w
b10100 7"
b10100 k"
1:
b100 4
b100 _
b100 >"
b100 i"
b11111110100000000000000001010100 A
b11111110100000000000000001010100 d
b11111110100000000000000001010100 x"
b100 7
b100 `
b100 C"
b100 h"
b1 <
b1 a
b1 k
b1 H"
b1 g"
1F
1$
1#
#60
0#
#70
b1000000000000 f
b1000000000000 j
b1000000000000 n
b1000000000000 m
b1010 !"
b1000000000000 S
b1000000000000 i
b1000000000000 ~
b11 ?"
b11 d"
b11 p"
b11 *
b11 )"
b11 2"
b11 a"
b11 s"
b1111111100000101 2#
b1111111100000101 @#
b1111111100000101 B#
b1 {
0}
b10100 x
b1 |
b1010 z
b1 U
b1 o
b1 v
b101000000010000100000011 6"
b101000000010000100000011 _"
b100000011 8"
b100000011 ^"
b1 :"
b11 @"
b10 A"
b10 \"
b10000 z"
b10000 "#
b100 3
b100 ^
b100 s
b100 -#
b100 >#
b111111111111111111111100000101 ?#
b10100 C
b10100 e
b10100 q
b10100 *#
b10100 4#
b10100 ;#
1E
b1 +
b1 #"
b1 3"
b1 n"
b1 ?
b1 c
b1 p
b1 +"
b1 K"
b1 f"
b101000000001101000000001 .
b101000000001101000000001 Y
b101000000001101000000001 5"
b101000000001101000000001 l"
b101000000001 /
b101000000001 Z
b101000000001 w
b101000000001 7"
b101000000001 k"
b1 4
b1 _
b1 >"
b1 i"
b11111110100000000110100000001100 A
b11111110100000000110100000001100 d
b11111110100000000110100000001100 x"
b1000 7
b1000 `
b1000 C"
b1000 h"
b1100 6
b1100 B"
b1100 e"
b1100 {"
b1100 )#
b11100011101000000010000100000011 9
b11100011101000000010000100000011 F"
b11100011101000000010000100000011 ~"
b11100011101000000010000100000011 (#
b11100000100100100011000000000010 !#
b11100000100100100011000000000010 %#
b11100000100100100011000000000010 &#
b10000 |"
b10000 '#
b1100 }"
b1100 ##
b1100 $#
0$
1#
#80
0#
#90
b11000000000000000000000000000000 f
b11000000000000000000000000000000 j
b11000000000000000000000000000000 n
1-"
1y"
1'
b1000 V
b1000 l
b1000 t
b111000000000000000000000000000000 m
b10 ?"
b10 d"
b10 p"
b10 *
b10 )"
b10 2"
b10 a"
b10 s"
1;
0O"
b0 I"
b0 ["
b0 ]"
0N"
08
b10100 z"
b10100 "#
b100100100011000000000010 6"
b100100100011000000000010 _"
b10 8"
b10 ^"
b0 :"
b10 @"
b11 A"
b11 \"
b10 <"
b10 c"
b10 q"
b10 ,
b10 *"
b10 ."
b10 `"
b10 r"
b10 ="
19"
b100 D"
b100 Z"
0G"
b11 {
b10 x
b11 |
b1 z
b1 !"
b11000000000000000000000000000000 S
b11000000000000000000000000000000 i
b11000000000000000000000000000000 ~
b11 U
b11 o
b11 v
b1100000000 2#
b1100000000 @#
b1100000000 B#
b10100 &
b10100 R
b10100 0"
b10100 t"
b10100 I#
b11100000101000000100000000000000 !#
b11100000101000000100000000000000 %#
b11100000101000000100000000000000 &#
b10100 |"
b10100 '#
b10000 }"
b10000 ##
b10000 $#
b10000 6
b10000 B"
b10000 e"
b10000 {"
b10000 )#
b11100000100100100011000000000010 9
b11100000100100100011000000000010 F"
b11100000100100100011000000000010 ~"
b11100000100100100011000000000010 (#
b11 +
b11 #"
b11 3"
b11 n"
b10 ?
b10 c
b10 p
b10 +"
b10 K"
b10 f"
b101000000010000100000011 .
b101000000010000100000011 Y
b101000000010000100000011 5"
b101000000010000100000011 l"
b100000011 /
b100000011 Z
b100000011 w
b100000011 7"
b100000011 k"
b11 4
b11 _
b11 >"
b11 i"
b11111110100000001000010000011000 A
b11111110100000001000010000011000 d
b11111110100000001000010000011000 x"
b1100 7
b1100 `
b1100 C"
b1100 h"
b1 >
b1 b
b1 r
b1 ""
b1 ("
b1 ,#
b1 5#
b1 3
b1 ^
b1 s
b1 -#
b1 >#
b1100000000 ?#
b1000000000000 C
b1000000000000 e
b1000000000000 q
b1000000000000 *#
b1000000000000 4#
b1000000000000 ;#
1D
b10100 B
b10100 1#
b10100 8#
b10100 F#
1$
1#
#100
b1111 w"
0#
#110
b0 f
b0 j
b0 n
b1000000000000 &
b1000000000000 R
b1000000000000 0"
b1000000000000 t"
b1000000000000 I#
b1111111100000000 2#
b1111111100000000 @#
b1111111100000000 B#
b10 {
b0 x
b10 |
b0 z
b0 !"
b10 S
b10 i
b10 ~
b10 U
b10 o
b10 v
b10 T
b10 h
b100 V
b100 l
b100 t
b0 m
1;
b1000000000000 B
b1000000000000 1#
b1000000000000 8#
b1000000000000 F#
b1 =
b1 %"
b1 J"
b1 u"
b1 /#
b1 :#
b1 H#
b10 >
b10 b
b10 r
b10 ""
b10 ("
b10 ,#
b10 5#
b11 3
b11 ^
b11 s
b11 -#
b11 >#
b101111111111111111111100000000 ?#
b11000000000000000000000000000000 C
b11000000000000000000000000000000 e
b11000000000000000000000000000000 q
b11000000000000000000000000000000 *#
b11000000000000000000000000000000 4#
b11000000000000000000000000000000 ;#
b10 +
b10 #"
b10 3"
b10 n"
b10 -
b10 $"
b10 4"
b10 m"
b11 ?
b11 c
b11 p
b11 +"
b11 K"
b11 f"
b100100100011000000000010 .
b100100100011000000000010 Y
b100100100011000000000010 5"
b100100100011000000000010 l"
b10 /
b10 Z
b10 w
b10 7"
b10 k"
0:
b10 4
b10 _
b10 >"
b10 i"
b10 2
b10 ]
b10 ;"
b10 j"
b11111110010010001100000000011000 A
b11111110010010001100000000011000 d
b11111110010010001100000000011000 x"
b10000 7
b10000 `
b10000 C"
b10000 h"
b0 <
b0 a
b0 k
b0 H"
b0 g"
0F
0$
1#
#120
b1111 w"
0#
#130
1N"
1O"
b10 I"
b10 ["
b10 ]"
0-"
0y"
0;
b11000000000000000000000000000000 &
b11000000000000000000000000000000 R
b11000000000000000000000000000000 0"
b11000000000000000000000000000000 t"
b11000000000000000000000000000000 I#
b11 >
b11 b
b11 r
b11 ""
b11 ("
b11 ,#
b11 5#
b10 3
b10 ^
b10 s
b10 -#
b10 >#
b111111111111111111111100000000 ?#
b0 C
b0 e
b0 q
b0 *#
b0 4#
b0 ;#
0E
b11000000000000000000000000000000 B
b11000000000000000000000000000000 1#
b11000000000000000000000000000000 8#
b11000000000000000000000000000000 F#
b10 =
b10 %"
b10 J"
b10 u"
b10 /#
b10 :#
b10 H#
1$
1#
#140
b1111 w"
b11000000000000000000000000000000 <"
b11000000000000000000000000000000 c"
b11000000000000000000000000000000 q"
b11000000000000000000000000000000 ?"
b11000000000000000000000000000000 d"
b11000000000000000000000000000000 p"
0#
#150
b11000000000000000000000000000000 S
b11000000000000000000000000000000 i
b11000000000000000000000000000000 ~
b10000000000000000000000000000000 f
b10000000000000000000000000000000 j
b10000000000000000000000000000000 n
b10100 ?"
b10100 d"
b10100 p"
b0 *
b0 )"
b0 2"
b0 a"
b0 s"
b11 I"
b11 ["
b11 ]"
1N"
0O"
b0 &
b0 R
b0 0"
b0 t"
b0 I#
b11000000000000000000000000000000 U
b11000000000000000000000000000000 o
b11000000000000000000000000000000 v
b11000000000000000000000000000000 T
b11000000000000000000000000000000 h
b1010 V
b1010 l
b1010 t
b110000000000000000000000000000000 m
b101000000100000000000000 6"
b101000000100000000000000 _"
b0 8"
b0 ^"
b0 @"
b100 A"
b100 \"
b10100 <"
b10100 c"
b10100 q"
b0 ,
b0 *"
b0 ."
b0 `"
b0 r"
b0 ="
09"
b101 D"
b101 Z"
b11000 z"
b11000 "#
0D
b0 B
b0 1#
b0 8#
b0 F#
b11 =
b11 %"
b11 J"
b11 u"
b11 /#
b11 :#
b11 H#
b11000000000000000000000000000000 4
b11000000000000000000000000000000 _
b11000000000000000000000000000000 >"
b11000000000000000000000000000000 i"
b11000000000000000000000000000000 2
b11000000000000000000000000000000 ]
b11000000000000000000000000000000 ;"
b11000000000000000000000000000000 j"
b10 <
b10 a
b10 k
b10 H"
b10 g"
1G
1F
b10100 6
b10100 B"
b10100 e"
b10100 {"
b10100 )#
b11100000101000000100000000000000 9
b11100000101000000100000000000000 F"
b11100000101000000100000000000000 ~"
b11100000101000000100000000000000 (#
b11100000010001000101000100000100 !#
b11100000010001000101000100000100 %#
b11100000010001000101000100000100 &#
b11000 |"
b11000 '#
b10100 }"
b10100 ##
b10100 $#
0$
1#
#160
1M"
1W"
1X"
b1010 (
b1010 W
b1010 u
b1010 /"
b1010 T"
b1010 b"
0#
